rhit-csse232-2021c-projects-2021c_violet/implementation/ALU/isim.log
ISim log file
Running: C:\Users\masurhj\Desktop\csse232\rhit-csse232-2021c-projects-2021c_violet\implementation\ALU\ALUTest_isim_beh.exe -intstyle ise -gui -tclbatch isim.cmd -wdb C:/Users/masurhj/Desktop/csse232/rhit-csse232-2021c-projects-2021c_violet/implementation/ALU/ALUTest_isim_beh.wdb 
ISim P.20131013 (signature 0x7708f090)
----------------------------------------------------------------------
INFO:Security:50 - The XILINXD_LICENSE_FILE environment variable is set to '2100@ise.csse.rose-hulman.edu'.
INFO:Security:53 - The LM_LICENSE_FILE environment variable is not set.
WARNING:Security:43 - No license file was found in the standard Xilinx license directory.
WARNING:Security:44 - Since no license file was found,
       please run the Xilinx License Configuration Manager
       (xlcm or "Manage Xilinx Licenses")
       to assist in obtaining a license.
WARNING:Security:42 - Your software subscription period has lapsed. Your current version of Xilinx tools will continue to function, but you no longer qualify for Xilinx software updates or new releases.


----------------------------------------------------------------------
This is a Full version of ISim.
Time resolution is 1 ps
# onerror resume
# wave add /
# run 1000 ns
Simulator is doing circuit initialization process.
Finished circuit initialization process.
Testing ADD
PASS o:     3, a:     2, b:     1, s: 0
PASS o:     4, a:     3, b:     1, s: 0
PASS o:     5, a:     4, b:     1, s: 0
PASS o:     6, a:     5, b:     1, s: 0
PASS o:     7, a:     6, b:     1, s: 0
Testing SUB
PASS o:     6, a:     7, b:     1, s: 1
PASS o:     7, a:     8, b:     1, s: 1
PASS o:     8, a:     9, b:     1, s: 1
PASS o:     9, a:    10, b:     1, s: 1
# run all
PASS o:    10, a:    11, b:     1, s: 1
Testing SLL
PASS o:    48, a:    12, b:     2, s: 2
PASS o:    52, a:    13, b:     2, s: 2
PASS o:    56, a:    14, b:     2, s: 2
PASS o:    60, a:    15, b:     2, s: 2
PASS o:    64, a:    16, b:     2, s: 2
Testing SLT
PASS o:     1, a:     2, b:     1, s: 3
PASS o:     0, a:     2, b:     2, s: 3
PASS o: 65535, a:     2, b:     3, s: 3
# run all
